…
I now want to see the count of trees planted per decade by
neighbourhood.

``` r
vancouver_trees %>% 
  group_by(neighbourhood_name, decade_planted) %>% 
  summarise(count = n())
```

    ## `summarise()` has grouped output by 'neighbourhood_name'. You can override using the `.groups` argument.

    ## # A tibble: 88 × 3
    ## # Groups:   neighbourhood_name [22]
    ##    neighbourhood_name decade_planted count
    ##    <chr>              <fct>          <int>
    ##  1 ARBUTUS-RIDGE      90's             826
    ##  2 ARBUTUS-RIDGE      00's            1176
    ##  3 ARBUTUS-RIDGE      10's             535
    ##  4 ARBUTUS-RIDGE      <NA>            2632
    ##  5 DOWNTOWN           90's             569
    ##  6 DOWNTOWN           00's            1179
    ##  7 DOWNTOWN           10's             464
    ##  8 DOWNTOWN           <NA>            2947
    ##  9 DUNBAR-SOUTHLANDS  90's            1111
    ## 10 DUNBAR-SOUTHLANDS  00's            1631
    ## # … with 78 more rows
…
    ## `summarise()` has grouped output by 'common_name'. You can override using the `.groups` argument.

    ## # A tibble: 22 × 7
    ##    neighbourhood_name        mean median   min   max pop_tree              total
    ##    <chr>                    <dbl>  <dbl> <int> <int> <chr>                 <int>
    ##  1 ARBUTUS-RIDGE             19.9    5.5     1   696 PISSARD PLUM           5169
    ##  2 DOWNTOWN                  30.7    7       1   486 RED MAPLE              5159
    ##  3 DUNBAR-SOUTHLANDS         25.9    5       1   754 KWANZAN FLOWERING CH…  9415
    ##  4 FAIRVIEW                  17.9    6       1   251 RED MAPLE              4002
    ##  5 GRANDVIEW-WOODLAND        21.6    5       1   452 KWANZAN FLOWERING CH…  6703
    ##  6 HASTINGS-SUNRISE          30.4    9       1   657 PISSARD PLUM          10547
    ##  7 KENSINGTON-CEDAR COTTAGE  34.2    9       1   739 KWANZAN FLOWERING CH… 11042
    ##  8 KERRISDALE                24.4    7       1   668 NORWAY MAPLE           6936
    ##  9 KILLARNEY                 25.9    7       1   676 CRIMEAN LINDEN         6148
    ## 10 KITSILANO                 24.2    5.5     1   874 NORWAY MAPLE           8115
    ## # … with 12 more rows
…
