…
This is sort of hard to interpret as a graph, I’d like to just see it as
a table instead.

``` r
vancouver_trees %>% group_by(neighbourhood_name) %>% count()
```

    ## # A tibble: 22 × 2
    ## # Groups:   neighbourhood_name [22]
    ##    neighbourhood_name           n
    ##    <chr>                    <int>
    ##  1 ARBUTUS-RIDGE             5169
    ##  2 DOWNTOWN                  5159
    ##  3 DUNBAR-SOUTHLANDS         9415
    ##  4 FAIRVIEW                  4002
    ##  5 GRANDVIEW-WOODLAND        6703
    ##  6 HASTINGS-SUNRISE         10547
    ##  7 KENSINGTON-CEDAR COTTAGE 11042
    ##  8 KERRISDALE                6936
    ##  9 KILLARNEY                 6148
    ## 10 KITSILANO                 8115
    ## # … with 12 more rows
…
